<?xml version="1.0" encoding="UTF-8"?>
<svg width="34px" height="28px" viewBox="0 0 34 28" version="1.1" xmlns="http://www.w3.org/2000/svg" xmlns:xlink="http://www.w3.org/1999/xlink">
    <!-- Generator: Sketch 49.3 (51167) - http://www.bohemiancoding.com/sketch -->
    <title>order history</title>
    <desc>Created with Sketch.</desc>
    <defs></defs>
    <g id="Page-1" stroke="none" stroke-width="1" fill="none" fill-rule="evenodd">
        <g id="profile-screen" transform="translate(-82.000000, -819.000000)" stroke="#666666" stroke-width="2">
            <g id="order-history" transform="translate(82.000000, 819.000000)">
                <rect id="Rectangle-9" x="1" y="1" width="24.0192308" height="26" rx="8"></rect>
                <path d="M6.34615385,7.51219512 L19.6333606,7.51219512" id="Path-12" stroke-linecap="round"></path>
                <path d="M6.34615385,14.3414634 L19.6333606,14.3414634" id="Path-12-Copy" stroke-linecap="round"></path>
                <path d="M6.34615385,21.1707317 L19.6333606,21.1707317" id="Path-12-Copy-2" stroke-linecap="round"></path>
                <path d="M29.1923077,23.6506253 L29.1923077,8.00857191 C29.1923077,7.45628716 29.6400229,7.00857191 30.1923077,7.00857191 C30.4702483,7.00857191 30.7356502,7.12424739 30.9248503,7.32785069 L32.9683953,9.52696496" id="Path-13" stroke-linecap="round"></path>
            </g>
        </g>
    </g>
</svg>